Compute QQ Data for Single Variable and Weight — bal_qq • halfmoon
…
    Examples

# Unweighted QQ data
bal_qq(nhefs_weights, age, qsmk)
#> # A tibble: 99 × 3
#>    quantile exposed_quantiles unexposed_quantiles
#>       <dbl>             <dbl>               <dbl>
#>  1     0.01                25                25  
#>  2     0.02                25                25  
#>  3     0.03                26                25  
#>  4     0.04                26                25.5
#>  5     0.05                27                26  
#>  6     0.06                27                26  
#>  7     0.07                28                26  
#>  8     0.08                28                27  
#>  9     0.09                29                27  
#> 10     0.1                 29                28  
#> # ℹ 89 more rows

# Weighted QQ data
bal_qq(nhefs_weights, age, qsmk, .weights = w_ate)
#> # A tibble: 99 × 3
#>    quantile exposed_quantiles unexposed_quantiles
#>       <dbl>             <dbl>               <dbl>
#>  1     0.01              25                    25
#>  2     0.02              25                    25
#>  3     0.03              25.3                  25
#>  4     0.04              26                    26
#>  5     0.05              26                    26
#>  6     0.06              26                    26
#>  7     0.07              27                    27
#>  8     0.08              27                    27
#>  9     0.09              28                    27
#> 10     0.1               28                    28
#> # ℹ 89 more rows
…
