Calculate Single ROC Curve for Model Balance Assessment — bal_model_roc_curve • halfmoon
…
    Examples

# Unweighted ROC curve
bal_model_roc_curve(nhefs_weights, qsmk, .fitted)
#> # A tibble: 1,568 × 3
#>    threshold sensitivity specificity
#>        <dbl>       <dbl>       <dbl>
#>  1 -Inf            1        0       
#>  2    0.0510       1        0       
#>  3    0.0527       1        0.000860
#>  4    0.0558       1        0.00172 
#>  5    0.0559       1        0.00258 
#>  6    0.0567       1        0.00344 
#>  7    0.0595       1        0.00430 
#>  8    0.0599       1        0.00516 
#>  9    0.0601       0.998    0.00516 
#> 10    0.0608       0.995    0.00516 
#> # ℹ 1,558 more rows

# Weighted ROC curve
bal_model_roc_curve(nhefs_weights, qsmk, .fitted, w_ate)
#> # A tibble: 1,568 × 3
#>    threshold sensitivity specificity
#>        <dbl>       <dbl>       <dbl>
#>  1 -Inf            1        0       
#>  2    0.0510       1        0       
#>  3    0.0527       1        0.000673
#>  4    0.0558       1        0.00135 
#>  5    0.0559       1        0.00202 
#>  6    0.0567       1        0.00270 
#>  7    0.0595       1        0.00338 
#>  8    0.0599       1        0.00406 
#>  9    0.0601       0.989    0.00406 
#> 10    0.0608       0.979    0.00406 
#> # ℹ 1,558 more rows
…
