…
## Examples

``` r
# Basic usage with binary exposure
check_balance(nhefs_weights, c(age, wt71), qsmk, .weights = c(w_ate, w_att))
#> # A tibble: 21 × 5
#>    variable group_level method   metric estimate
#>    <chr>    <chr>       <chr>    <chr>     <dbl>
#>  1 age      0           observed ks      0.130  
#>  2 age      0           w_ate    ks      0.0293 
#>  3 age      0           w_att    ks      0.0362 
#>  4 age      0           observed smd     0.282  
#>  5 age      0           w_ate    smd     0.00585
#>  6 age      0           w_att    smd     0.0122 
#>  7 age      0           observed vr      1.07   
#>  8 age      0           w_ate    vr      1.01   
#>  9 age      0           w_att    vr      1.01   
#> 10 wt71     0           observed ks      0.0700 
#> # ℹ 11 more rows

# With specific metrics only
check_balance(nhefs_weights, c(age, wt71), qsmk, .metrics = c("smd", "energy"))
#> # A tibble: 3 × 5
#>   variable group_level method   metric estimate
#>   <chr>    <chr>       <chr>    <chr>     <dbl>
#> 1 age      0           observed smd      0.282 
#> 2 wt71     0           observed smd      0.133 
#> 3 NA       NA          observed energy   0.0503

# Categorical exposure
check_balance(nhefs_weights, c(age, wt71), alcoholfreq_cat,
              .weights = c(w_cat_ate, w_cat_att_2_3wk))
#> # A tibble: 75 × 5
#>    variable group_level    method          metric estimate
#>    <chr>    <chr>          <chr>           <chr>     <dbl>
#>  1 age      lt_12_per_year observed        ks       0.196 
#>  2 age      1_4_per_month  observed        ks       0.291 
#>  3 age      2_3_per_week   observed        ks       0.264 
#>  4 age      daily          observed        ks       0.177 
#>  5 age      lt_12_per_year w_cat_ate       ks       0.0696
#>  6 age      1_4_per_month  w_cat_ate       ks       0.0455
#>  7 age      2_3_per_week   w_cat_ate       ks       0.0503
#>  8 age      daily          w_cat_ate       ks       0.0476
#>  9 age      lt_12_per_year w_cat_att_2_3wk ks       0.164 
#> 10 age      1_4_per_month  w_cat_att_2_3wk ks       0.137 
#> # ℹ 65 more rows

# Specify reference group for categorical exposure
check_balance(nhefs_weights, c(age, wt71, sex), alcoholfreq_cat,
              .reference_level = "daily", .metrics = c("smd", "vr"))
#> # A tibble: 24 × 5
#>    variable group_level    method   metric estimate
#>    <chr>    <chr>          <chr>    <chr>     <dbl>
#>  1 age      none           observed smd     -0.334 
#>  2 age      lt_12_per_year observed smd      0.0725
#>  3 age      1_4_per_month  observed smd      0.329 
#>  4 age      2_3_per_week   observed smd     -0.265 
#>  5 age      none           observed vr       0.789 
#>  6 age      lt_12_per_year observed vr       1.00  
#>  7 age      1_4_per_month  observed vr       0.965 
#>  8 age      2_3_per_week   observed vr       1.02  
#>  9 sex      none           observed smd     -0.494 
#> 10 sex      lt_12_per_year observed smd     -0.826 
#> # ℹ 14 more rows
…
