Check Balance Across Multiple Metrics — check_balance • halfmoon
…
method
Character. The weighting method ("observed" or weight variable name).

metric
Character. The balance metric computed ("smd", "vr", "ks").

estimate
Numeric. The computed balance statistic.

    Examples

# Basic usage with all metrics
check_balance(nhefs_weights, c(age, wt71), qsmk, .wts = c(w_ate, w_att))
#> # A tibble: 21 × 5
#>    variable group_level method   metric estimate
#>    <chr>    <chr>       <chr>    <chr>     <dbl>
#>  1 age      0           observed ks      0.130  
#>  2 age      0           w_ate    ks      0.0293 
#>  3 age      0           w_att    ks      0.0362 
#>  4 age      0           observed smd     0.282  
#>  5 age      0           w_ate    smd     0.00585
#>  6 age      0           w_att    smd     0.0122 
#>  7 age      0           observed vr      1.07   
#>  8 age      0           w_ate    vr      1.01   
#>  9 age      0           w_att    vr      1.01   
#> 10 wt71     0           observed ks      0.0700 
#> # ℹ 11 more rows
…
