Check QQ Data for Multiple Weights — check_qq • halfmoon
…
    Examples

# Basic QQ data (observed only)
check_qq(nhefs_weights, age, qsmk)
#> # A tibble: 99 × 4
#>    method   quantile exposed_quantiles unexposed_quantiles
#>    <fct>       <dbl>             <dbl>               <dbl>
#>  1 observed     0.01                25                25  
#>  2 observed     0.02                25                25  
#>  3 observed     0.03                26                25  
#>  4 observed     0.04                26                25.5
#>  5 observed     0.05                27                26  
#>  6 observed     0.06                27                26  
#>  7 observed     0.07                28                26  
#>  8 observed     0.08                28                27  
#>  9 observed     0.09                29                27  
#> 10 observed     0.1                 29                28  
#> # ℹ 89 more rows

# With weighting
check_qq(nhefs_weights, age, qsmk, .weights = w_ate)
#> # A tibble: 198 × 4
#>    method   quantile exposed_quantiles unexposed_quantiles
#>    <fct>       <dbl>             <dbl>               <dbl>
#>  1 observed     0.01                25                25  
#>  2 observed     0.02                25                25  
#>  3 observed     0.03                26                25  
#>  4 observed     0.04                26                25.5
#>  5 observed     0.05                27                26  
#>  6 observed     0.06                27                26  
#>  7 observed     0.07                28                26  
#>  8 observed     0.08                28                27  
#>  9 observed     0.09                29                27  
#> 10 observed     0.1                 29                28  
#> # ℹ 188 more rows

# Compare multiple weighting schemes
check_qq(nhefs_weights, age, qsmk, .weights = c(w_ate, w_att))
#> # A tibble: 297 × 4
#>    method   quantile exposed_quantiles unexposed_quantiles
#>    <fct>       <dbl>             <dbl>               <dbl>
#>  1 observed     0.01                25                25  
#>  2 observed     0.02                25                25  
#>  3 observed     0.03                26                25  
#>  4 observed     0.04                26                25.5
#>  5 observed     0.05                27                26  
#>  6 observed     0.06                27                26  
#>  7 observed     0.07                28                26  
#>  8 observed     0.08                28                27  
#>  9 observed     0.09                29                27  
#> 10 observed     0.1                 29                28  
#> # ℹ 287 more rows
…
