Compute calibration data for binary outcomes — check_calibration • halfmoon
…
# Logistic method with smoothing
check_calibration(nhefs_weights, .fitted, qsmk, method = "logistic")
#> # A tibble: 100 × 4
#>    predicted_rate observed_rate     lower     upper
#>             <dbl>     <dbl[1d]> <dbl[1d]> <dbl[1d]>
#>  1         0.0510        0.0651    0.0363     0.114
#>  2         0.0583        0.0694    0.0404     0.117
#>  3         0.0657        0.0740    0.0448     0.120
#>  4         0.0730        0.0789    0.0497     0.123
#>  5         0.0803        0.0840    0.0549     0.126
#>  6         0.0877        0.0894    0.0606     0.130
#>  7         0.0950        0.0952    0.0666     0.134
#>  8         0.102         0.101     0.0730     0.139
#>  9         0.110         0.108     0.0797     0.144
#> 10         0.117         0.114     0.0868     0.149
#> # ℹ 90 more rows
…
