…
# Check ROC curve for a single weight without observed
check_model_roc_curve(
  nhefs_weights,
  qsmk,
  .fitted,
  w_ate,
  include_observed = FALSE
)
#> # A tibble: 1,568 × 4
#>    threshold sensitivity specificity method
#>        <dbl>       <dbl>       <dbl> <chr> 
#>  1 -Inf            1        0        w_ate 
#>  2    0.0510       1        0        w_ate 
#>  3    0.0527       1        0.000673 w_ate 
#>  4    0.0558       1        0.00135  w_ate 
#>  5    0.0559       1        0.00202  w_ate 
#>  6    0.0567       1        0.00270  w_ate 
#>  7    0.0595       1        0.00338  w_ate 
#>  8    0.0599       1        0.00406  w_ate 
#>  9    0.0601       0.989    0.00406  w_ate 
#> 10    0.0608       0.979    0.00406  w_ate 
#> # ℹ 1,558 more rows

# Specify a different focal level
check_model_roc_curve(
  nhefs_weights,
  qsmk,
  .fitted,
  w_ate,
  .focal_level = 0  # Use 0 as the treatment level instead of 1
)
#> # A tibble: 3,136 × 4
#>    threshold sensitivity specificity method  
#>        <dbl>       <dbl>       <dbl> <chr>   
#>  1 -Inf            1         0       observed
#>  2    0.0510       1         0       observed
#>  3    0.0527       0.999     0       observed
#>  4    0.0558       0.998     0       observed
#>  5    0.0559       0.997     0       observed
#>  6    0.0567       0.997     0       observed
#>  7    0.0595       0.996     0       observed
#>  8    0.0599       0.995     0       observed
#>  9    0.0601       0.995     0.00248 observed
#> 10    0.0608       0.995     0.00496 observed
#> # ℹ 3,126 more rows
```
